<svg width="28" height="24" viewBox="0 0 28 24" fill="none" xmlns="http://www.w3.org/2000/svg">
	<path d="M2.5 19.5C4.5 20.3333 9.5 21.5 13.5 19.5C18.5 17 21.5 17.5 23 19.5C24.5 21.5 22 23.5 20.5 22.5C19 21.5 19.5 21 18.5 21" stroke="white" stroke-linecap="round"/>
	<path d="M7 9.50003C8.66667 8.00003 11.98 5.50003 16 5.50003C23 5.50003 23 5.50004 23.5 4.00002C24 2.5 21.5 1.50001 21 1.5C20.5 1.49999 19.5 1.5 19 3.5M1 15C1 15 12.3 15.5 15.5 13.5C19.5 11 26.626 12.4938 26.5 17C20 15 20.5 15.5 14.5 16.5C8.5 17.5 1 15 1 15ZM4 13C4 13 10 13 13.5 12C17 11 17.5 9.50003 23.5 11C23 7.5 18 7 14 9.50003C10 12.0001 4 13 4 13Z" stroke="white" stroke-linecap="round"/>
	<circle cx="4.5" cy="7.5" r="1.5" fill="white"/>
	<circle cx="2.5" cy="22.5" r="1.5" fill="white"/>
	<circle cx="14.5" cy="22.5" r="1.5" fill="white"/>
	<circle cx="15.5" cy="1.5" r="1.5" fill="white"/>
</svg>